<svg xmlns="http://www.w3.org/2000/svg" width="8" height="13" viewBox="0 0 8 13">
  <path fill="#009BDE" fill-rule="evenodd" d="M32.4957592,12.9631273 L32.4957592,6.88042727 L30.7777354,6.88042727 L30.7777354,4.69028182 L32.4957592,4.69028182 L32.4957592,2.8197 C32.4957592,1.34975455 33.5106165,0 35.8489922,0 C36.7958052,0 37.4960682,0.0849727273 37.4960682,0.0849727273 L37.4407743,2.13010909 C37.4407743,2.13010909 36.726751,2.12360909 35.947587,2.12360909 C35.1042922,2.12360909 34.9692136,2.48737273 34.9692136,3.09128182 C34.9692136,3.56861818 34.9692136,2.07385455 34.9692136,4.6904 L37.5078086,4.6904 L37.3973471,6.88054545 L34.9692136,6.88054545 L34.9692136,12.9632455 L32.4957592,12.9632455 L32.4957592,12.9631273 Z" transform="translate(-30)"/>
</svg>
